<?xml version="1.0" encoding="UTF-8"?>
<svg width="40px" height="24px" viewBox="0 0 40 24" version="1.1" xmlns="http://www.w3.org/2000/svg" xmlns:xlink="http://www.w3.org/1999/xlink">
    <!-- Generator: sketchtool 47.1 (45422) - http://www.bohemiancoding.com/sketch -->
    <title>6C4D5CF4-D542-4743-BA85-231736D143EC</title>
    <desc>Created with sketchtool.</desc>
    <defs></defs>
    <g id="Page-1" stroke="none" stroke-width="1" fill="none" fill-rule="evenodd">
        <g id="Homepage-final" transform="translate(-808.000000, -1717.000000)" fill-rule="nonzero">
            <g id="Group-6-Copy" transform="translate(140.000000, 1664.000000)">
                <g id="space4" transform="translate(664.000000, 39.000000)">
                    <path d="M42.83,21.17 C42.3222884,20.6681491 41.6909784,20.3093718 41,20.13 L41,19 C40.9990011,16.2389901 38.7610099,14.0009989 36,14 L12,14 C9.23899013,14.0009989 7.00099894,16.2389901 7,19 L7,20.13 C5.20433045,20.6474428 3.97613259,22.3014159 4,24.17 L4,31 C4.00484937,32.6548414 5.34515859,33.9951506 7,34 L9,34 L9,37 C9,37.5522847 9.44771525,38 10,38 C10.5522847,38 11,37.5522847 11,37 L11,34 L37,34 L37,37 C37,37.5522847 37.4477153,38 38,38 C38.5522847,38 39,37.5522847 39,37 L39,34 L41,34 C42.6548414,33.9951506 43.9951506,32.6548414 44,31 L44,24 C44.0003952,22.9389019 43.5795818,21.9210369 42.83,21.17 L42.83,21.17 Z M39,19 L39,20.13 C38.8318213,20.1715957 38.6678036,20.2284998 38.51,20.3 C36.9732368,20.9702542 35.9852944,22.493496 36,24.17 L36,26 L25,26 L25,16 L36,16 C37.6548505,16.0048275 38.9951725,17.3451495 39,19 Z M9,19 C9.00482753,17.3451495 10.3451495,16.0048275 12,16 L23,16 L23,26 L12,26 L12,24 C12.0003952,22.9389019 11.5795818,21.9210369 10.83,21.17 C10.7038178,21.0485129 10.5702285,20.934962 10.43,20.83 C10.333079,20.7509719 10.2293392,20.6806965 10.12,20.62 C10.05,20.57 9.97,20.52 9.9,20.48 C9.74140514,20.3965389 9.57775336,20.3230626 9.41,20.26 C9.29459027,20.2097172 9.17380409,20.1728103 9.05,20.15 C9.03,20.14005 9.02,20.13 9,20.13 L9,19 Z M42,31 C41.9983526,31.5516009 41.5516009,31.9983526 41,32 L7,32 C6.44839907,31.9983526 6.0016474,31.5516009 6,31 L6,24.17 C5.97111548,23.0819788 6.77046691,22.148682 7.85,22.01 C7.8995441,22.0016958 7.94979202,21.998346 8,22 C9.10126992,22.0079256 9.99207444,22.8987301 10,24 L10,27 C10.0016474,27.5516009 10.4483991,27.9983526 11,28 L37,28 C37.5516009,27.9983526 37.9983526,27.5516009 38,27 L38,24 C38.001638,23.0997715 38.6025708,22.3107916 39.47,22.07 C39.5947784,22.0394709 39.7218856,22.0194013 39.85,22.01 C39.91,22.01 39.96,22 40.02,22 C40.5440578,22.0005896 41.0455255,22.2134429 41.41,22.59 C41.7871616,22.9622892 41.9996278,23.4700472 42,24 L42,31 Z" id="Shape" fill="#000000"></path>
                    <rect id="Rectangle-path" fill="#FFFFFF" opacity="0" x="0" y="0" width="48" height="48"></rect>
                </g>
            </g>
        </g>
    </g>
</svg>